<?xml version="1.0" encoding="UTF-8"?>
<svg width="30px" height="30px" viewBox="0 0 30 30" version="1.1" xmlns="http://www.w3.org/2000/svg" xmlns:xlink="http://www.w3.org/1999/xlink">
    <!-- Generator: sketchtool 54.1 (76490) - https://sketchapp.com -->
    <title>A9C7E83C-455F-4D7E-8F18-A80ACDA4B3F3@2.00x</title>
    <desc>Created with sketchtool.</desc>
    <g id="Home-and-style-guide" stroke="none" stroke-width="1" fill="none" fill-rule="evenodd">
        <g id="Home" transform="translate(-527.000000, -4151.000000)">
            <g id="icon-thief" transform="translate(527.000000, 4151.000000)">
                <path d="M29.653986,14.9146853 C29.653986,23.0167832 23.0875524,29.5832168 14.9868531,29.5832168 C6.88755245,29.5832168 0.321118881,23.0167832 0.321118881,14.9146853 C0.321118881,6.81538462 6.88755245,0.248951049 14.9868531,0.248951049 C23.0875524,0.248951049 29.653986,6.81538462 29.653986,14.9146853" id="Fill-220" fill="#013343"></path>
                <path d="M8.45174825,11.5984615 C8.45174825,11.8935664 8.46993007,12.1802797 8.5034965,12.4641958 C8.40559441,12.6558042 8.33146853,12.86 8.28111888,13.0655944 C7.85454545,14.7537063 8.57062937,16.5732867 9.8013986,17.818042 L9.8013986,19.2558042 C9.73286713,19.2991608 9.67132867,19.3565035 9.62237762,19.4194406 C9.5006993,19.5830769 9.46153846,19.8012587 9.51608392,19.9984615 C9.55524476,20.1355245 9.64475524,20.2627972 9.77622378,20.3201399 C9.78461538,20.3229371 9.79300699,20.3257343 9.8013986,20.3285315 L9.8013986,22.7551049 C9.8013986,22.8446154 9.83216783,22.9271329 9.88111888,22.9942657 C9.87972028,23.0082517 9.87972028,23.0194406 9.87972028,23.0334266 C9.87972028,24.232028 12.165035,25.2054545 14.9832168,25.2054545 C17.8027972,25.2054545 20.0881119,24.232028 20.0881119,23.0334266 C20.0881119,23.0194406 20.0867133,23.0082517 20.0867133,22.9942657 C20.1356643,22.9271329 20.165035,22.8446154 20.165035,22.7551049 L20.165035,20.3285315 C20.1776224,20.3257343 20.1874126,20.3229371 20.1972028,20.3201399 C20.3300699,20.2627972 20.4195804,20.1355245 20.4587413,19.9984615 C20.5132867,19.8012587 20.4727273,19.5830769 20.351049,19.4194406 C20.3006993,19.3537063 20.2377622,19.2963636 20.165035,19.253007 L20.165035,17.8264336 C21.4013986,16.5816783 22.1202797,14.7565035 21.6937063,13.0655944 C21.641958,12.86 21.5692308,12.6558042 21.4727273,12.4641958 C21.5048951,12.1802797 21.5230769,11.8935664 21.5230769,11.5984615 C21.5230769,7.74671329 18.5972028,4.62783217 14.9874126,4.62783217 C11.3776224,4.62783217 8.45174825,7.74671329 8.45174825,11.5984615 M15.8741259,14.9718881 C15.6867133,14.8627972 15.4923077,14.6823776 15.5258741,14.4697902 C15.5454545,14.3467133 15.6363636,14.2502098 15.7272727,14.1690909 C16.2601399,13.6795804 16.9678322,13.3872727 17.6895105,13.3551049 C18.0265734,13.3383217 18.3762238,13.3816783 18.6657343,13.5537063 C18.9538462,13.7285315 19.165035,14.0544056 19.1328671,14.3900699 C19.0867133,14.8627972 18.606993,15.1662937 18.1538462,15.2865734 C17.9062937,15.3523077 17.6531469,15.3844755 17.3972028,15.3844755 C16.8657343,15.3844755 16.3328671,15.2418182 15.8741259,14.9718881 M11.7216783,15.2865734 C11.2657343,15.1662937 10.7874126,14.8627972 10.7412587,14.3900699 C10.7076923,14.0544056 10.9202797,13.7285315 11.2097902,13.5537063 C11.4979021,13.3816783 11.848951,13.3383217 12.1832168,13.3551049 C12.9048951,13.3872727 13.6125874,13.6795804 14.1468531,14.1690909 C14.2377622,14.2502098 14.3286713,14.3467133 14.3482517,14.4697902 C14.3818182,14.6823776 14.1874126,14.8627972 14,14.9718881 C13.5412587,15.2418182 13.0083916,15.3844755 12.4755245,15.3844755 C12.220979,15.3844755 11.9678322,15.3523077 11.7216783,15.2865734 M15.0629371,21.0222378 C14.4041958,20.9788811 14.2741259,20.853007 13.6167832,20.7816783 C13.2783217,20.7495105 13.0055944,20.4348252 12.9622378,20.0935664 C12.9188811,19.7551049 13.0769231,19.4138462 13.3216783,19.1760839 C13.5692308,18.9383217 13.8951049,18.7984615 14.2251748,18.7173427 C14.8433566,18.5620979 15.5062937,18.5970629 16.1048951,18.8124476 C16.4783217,18.9495105 16.8503497,19.1844755 16.9776224,19.5579021 C17.1300699,20.0096503 16.8531469,20.5257343 16.4475524,20.7718881 C16.1188811,20.9704895 15.7314685,21.0334266 15.3454545,21.0334266 C15.2503497,21.0334266 15.1552448,21.0278322 15.0629371,21.0222378" id="Fill-221" fill="#FFFFFE"></path>
            </g>
        </g>
    </g>
</svg>