<?xml version="1.0" encoding="UTF-8"?>
<svg width="30px" height="30px" viewBox="0 0 30 30" version="1.1" xmlns="http://www.w3.org/2000/svg" xmlns:xlink="http://www.w3.org/1999/xlink">
    <!-- Generator: sketchtool 54.1 (76490) - https://sketchapp.com -->
    <title>203B3911-E994-47A8-8130-D65FD5EF51EA@2.00x</title>
    <desc>Created with sketchtool.</desc>
    <g id="Home-and-style-guide" stroke="none" stroke-width="1" fill="none" fill-rule="evenodd">
        <g id="Home" transform="translate(-527.000000, -4195.000000)">
            <g id="icon-shotgun" transform="translate(527.000000, 4195.000000)">
                <path d="M29.653986,14.8211189 C29.653986,22.9232168 23.0875524,29.4868531 14.9868531,29.4868531 C6.88755245,29.4868531 0.321118881,22.9232168 0.321118881,14.8211189 C0.321118881,6.72181818 6.88755245,0.155384615 14.9868531,0.155384615 C23.0875524,0.155384615 29.653986,6.72181818 29.653986,14.8211189" id="Fill-226" fill="#013343"></path>
                <path d="M16.1808392,13.8432168 C16.171049,14.2012587 15.9304895,14.6138462 15.5640559,14.880979 C15.1976224,15.1495105 14.8577622,15.1565035 14.8577622,15.1565035 L13.0535664,15.1565035 C12.8661538,15.1565035 12.7416783,15.1187413 12.7416783,15.1187413 C12.2857343,14.9872727 11.7500699,14.4683916 11.6773427,14.0404196 C11.606014,13.611049 11.847972,13.0208392 11.847972,13.0208392 C11.847972,13.0208392 12.2395804,12.9341259 12.4913287,13.0376224 C12.7416783,13.1467133 12.7948252,13.2725874 12.9290909,13.8711888 C13.061958,14.4683916 13.7332867,14.9956643 13.992028,14.9956643 C14.2507692,14.9956643 14.1346853,14.8544056 14.1346853,14.8544056 C14.1346853,14.8544056 13.8563636,14.7746853 13.5262937,14.3593007 C13.1962238,13.9495105 13.3039161,13.2418182 13.5458741,12.9774825 C13.785035,12.7117483 14.3206993,12.5215385 14.3206993,12.5215385 L14.3206993,12.4502098 L14.8941259,12.4502098 C14.8941259,12.4502098 15.0283916,12.466993 15.3234965,12.5397203 C15.9011189,12.6795804 16.1444755,13.2991608 16.1444755,13.2991608 C16.1444755,13.2991608 16.1892308,13.487972 16.1808392,13.8432168 M5.00461538,9.3579021 C4.84657343,9.3579021 4.7179021,9.23202797 4.7179021,9.07398601 C4.7179021,8.91314685 4.84657343,8.78727273 5.00461538,8.78727273 C5.16265734,8.78727273 5.28993007,8.91314685 5.28993007,9.07398601 C5.28993007,9.23202797 5.16265734,9.3579021 5.00461538,9.3579021 M25.6311888,10.1369231 L25.6311888,9.1634965 C25.6311888,8.93692308 25.5332867,8.98307692 25.5332867,8.98307692 L25.5332867,8.77888112 C25.5332867,8.69636364 25.461958,8.62643357 25.461958,8.62643357 L25.4004196,8.52713287 C25.4004196,8.52713287 25.4088112,8.29496503 25.3808392,8.18307692 C25.3542657,8.0627972 25.2563636,8.00265734 25.2563636,8.00265734 L24.3808392,8.00265734 L24.3808392,8.0627972 L24.3808392,8.34111888 C24.3808392,8.48377622 24.3360839,8.49216783 24.3360839,8.49216783 L14.0451748,8.4641958 L13.9640559,8.39426573 L13.2773427,8.26839161 C13.2773427,8.26839161 12.9556643,8.13692308 12.9109091,8.07398601 C12.8661538,8.00825175 12.8116084,7.93972028 12.8116084,7.93972028 L11.9906294,7.93972028 L11.9906294,7.80405594 L11.461958,7.80405594 L11.454965,7.85020979 L11.4186014,7.92153846 L7.80041958,7.92153846 L7.76545455,7.80405594 L7.18363636,7.80405594 L7.18363636,7.89356643 L7.06895105,7.89356643 L7.01440559,7.81384615 L6.68433566,7.81384615 L6.69272727,7.9593007 L6.77384615,8.02783217 L6.82699301,8.1620979 L6.77384615,8.16909091 L6.70251748,8.1620979 C6.70251748,8.1620979 6.60321678,8.14531469 6.50531469,8.18307692 C6.40741259,8.21664336 6.18363636,8.5551049 6.18363636,8.5551049 L6.08573427,8.54671329 C6.08573427,8.54671329 5.96825175,8.62643357 5.78223776,8.6641958 C5.59482517,8.69636364 5.54167832,8.64461538 5.54167832,8.64461538 C5.35426573,8.44881119 4.9151049,8.25160839 4.56685315,8.64461538 C4.2172028,9.03762238 4.46055944,9.47818182 4.69272727,9.62503497 C4.9234965,9.77888112 5.14727273,9.70755245 5.26475524,9.67958042 C5.37944056,9.65300699 5.53188811,9.70755245 5.53188811,9.70755245 L5.53188811,9.86 C5.53188811,9.86 5.57664336,9.93972028 5.65776224,10.2977622 C5.73608392,10.6558042 5.67454545,10.9970629 5.47874126,11.2893706 C5.28153846,11.5844755 4.8172028,11.6362238 4.8172028,11.6362238 L4.76265734,11.6907692 C4.7179021,11.894965 4.80321678,11.9914685 4.80321678,11.9914685 C5.56685315,12.0152448 6.7193007,12.8488112 6.61300699,13.7858741 C6.50531469,14.7229371 5.58083916,16.1047552 4.99062937,17.8446154 C4.40181818,19.5872727 4.24097902,20.7816783 4.40181818,21.1802797 C4.56265734,21.5844755 4.89692308,21.5299301 4.89692308,21.5299301 L5.67454545,21.5299301 L5.63258741,21.666993 C5.59482517,21.7970629 5.67454545,21.839021 5.67454545,21.839021 L9.27874126,21.839021 L9.41300699,21.666993 L9.61300699,21.666993 C9.61300699,21.666993 9.85496503,21.6907692 9.85496503,21.4921678 C9.85496503,21.2865734 9.73468531,21.2488112 9.73468531,21.2488112 L9.58783217,21.2488112 C9.58783217,21.2488112 10.454965,17.2222378 10.7220979,16.3886713 C10.9892308,15.5593007 11.5528671,15.425035 11.8661538,15.3620979 C12.178042,15.2991608 14.5542657,15.3187413 14.5542657,15.3187413 C14.5542657,15.3187413 14.9738462,15.3537063 15.2773427,15.2558042 C15.5808392,15.1565035 16.0997203,14.7397203 16.2675524,14.3355245 C16.440979,13.9327273 16.440979,13.3355245 16.440979,13.3355245 C16.440979,13.3355245 16.5290909,13.1383217 16.8311888,12.8348252 C17.1360839,12.5299301 17.8591608,12.4222378 17.8591608,12.4222378 L20.9234965,12.3439161 L20.9234965,12.1467133 L20.978042,12.1117483 L25.1039161,12.1117483 C25.3906294,12.1117483 25.4172028,11.9145455 25.4172028,11.9145455 L25.4172028,10.4474126 L25.5067133,10.3690909 C25.640979,10.3145455 25.6311888,10.1369231 25.6311888,10.1369231" id="Fill-228" fill="#FFFFFE"></path>
            </g>
        </g>
    </g>
</svg>