<?xml version="1.0" encoding="UTF-8"?>
<svg width="30px" height="30px" viewBox="0 0 30 30" version="1.1" xmlns="http://www.w3.org/2000/svg" xmlns:xlink="http://www.w3.org/1999/xlink">
    <!-- Generator: sketchtool 54.1 (76490) - https://sketchapp.com -->
    <title>F5645048-9109-4C28-9E51-F16936588060@2.00x</title>
    <desc>Created with sketchtool.</desc>
    <g id="Home-and-style-guide" stroke="none" stroke-width="1" fill="none" fill-rule="evenodd">
        <g id="Home" transform="translate(-527.000000, -4063.000000)">
            <g id="icon-hyena" transform="translate(527.000000, 4063.000000)">
                <path d="M29.653986,15.0123077 C29.653986,23.1144056 23.0875524,29.6808392 14.9868531,29.6808392 C6.88755245,29.6808392 0.321118881,23.1144056 0.321118881,15.0123077 C0.321118881,6.91300699 6.88755245,0.346573427 14.9868531,0.346573427 C23.0875524,0.346573427 29.653986,6.91300699 29.653986,15.0123077" id="Fill-230" fill="#013343"></path>
                <path d="M3.39748252,16.7441958 C3.44083916,16.7693706 3.43944056,16.7931469 3.38909091,16.8043357 C3.20587413,16.8393007 3.06321678,16.8784615 2.91916084,16.8868531 C2.7820979,16.8938462 2.64083916,16.8784615 2.49678322,16.8644755 C2.44643357,16.8616783 2.42825175,16.891049 2.45762238,16.933007 C2.85482517,17.4728671 3.50657343,17.5288112 4.33034965,17.1022378 C4.37370629,17.0770629 4.41146853,17.0966434 4.40587413,17.1455944 C4.39328671,17.2574825 4.31916084,17.3511888 3.93314685,17.8043357 C3.90097902,17.8393007 3.91496503,17.8784615 3.96531469,17.8798601 C4.34993007,17.9134266 4.68839161,17.7959441 4.98629371,17.6015385 C5.32055944,17.3861538 5.64503497,17.14 5.92335664,16.8588811 C6.11216783,16.6700699 6.27020979,16.4546853 6.42825175,16.2365035 C6.45762238,16.1973427 6.49818182,16.2001399 6.52195804,16.2448951 C6.54853147,16.2938462 6.5793007,16.3372028 6.61286713,16.3805594 C6.64503497,16.4197203 6.67020979,16.4896503 6.66601399,16.5372028 C6.60447552,17.498042 5.98629371,18.3693706 5.06601399,18.705035 C4.41846154,18.9427972 4.41846154,18.9427972 4.44783217,19.6295105 C4.48699301,20.5441958 4.51636364,21.4644755 4.5751049,22.3791608 C4.5820979,22.4854545 4.73734266,22.6742657 4.82545455,22.6770629 C5.31496503,22.6854545 5.81006993,22.6798601 6.29398601,22.6113287 C6.55552448,22.5763636 6.65202797,22.2616783 6.55272727,22.0001399 C6.42125874,21.6644755 6.12195804,21.4812587 5.6827972,21.4812587 C5.63244755,21.4784615 5.59328671,21.4420979 5.59328671,21.3931469 C5.59328671,21.2351049 5.59608392,21.0742657 5.59188811,20.9176224 C5.5820979,20.5302098 5.75132867,20.2379021 6.08699301,20.0658741 C6.55552448,19.8281119 7.03664336,19.6127273 7.51496503,19.3945455 C8.11496503,19.1176224 8.6827972,18.8071329 9.12195804,18.2952448 C9.27020979,18.1232168 9.49118881,18.1511888 9.55832168,18.388951 C9.64363636,18.6924476 9.71496503,19.0448951 9.64223776,19.3344056 C9.55132867,19.7022378 9.31496503,20.0337063 9.13034965,20.374965 C9.05202797,20.5162238 9.01146853,20.6155245 9.17090909,20.7483916 C9.84363636,21.312028 10.5107692,21.8770629 11.1597203,22.4616783 C11.3793007,22.6630769 11.5988811,22.774965 11.8925874,22.753986 C12.1974825,22.7288112 12.5037762,22.7232168 12.8086713,22.6854545 C13.1681119,22.6365035 13.2632168,22.4281119 13.093986,22.098042 C13.045035,22.0057343 12.9890909,21.9148252 12.9303497,21.8281119 C12.7597203,21.5791608 12.5387413,21.4700699 12.2562238,21.6365035 C12.0758042,21.7427972 11.9569231,21.7106294 11.831049,21.5497902 C11.5191608,21.146993 11.1974825,20.7567832 10.8632168,20.3413986 C10.8324476,20.3008392 10.8436364,20.2518881 10.8855944,20.2267133 C11.9415385,19.5735664 12.2604196,18.5903497 12.2688112,17.374965 C12.2688112,17.3232168 12.3037762,17.3036364 12.3485315,17.326014 C13.2030769,17.7553846 13.9890909,17.6351049 14.7401399,17.0826573 C14.7793007,17.0532867 14.8100699,17.0686713 14.8100699,17.119021 C14.8198601,17.698042 15.0254545,18.2518881 14.7387413,18.8071329 C14.6855944,18.9078322 14.7667133,19.0826573 14.7862937,19.2239161 C14.8128671,19.4267133 14.8408392,19.6295105 14.8702098,19.8420979 C14.8772028,19.8938462 14.8422378,19.9372028 14.7932867,19.9483916 C14.7359441,19.9595804 14.6953846,19.9623776 14.6534266,19.967972 C13.907972,20.0714685 13.5163636,20.7931469 13.8338462,21.4784615 C13.9709091,21.767972 14.107972,21.8057343 14.3834965,21.6504895 C14.8478322,21.3875524 15.3387413,21.1581818 15.7751049,20.8546853 C15.9457343,20.7372028 16.0268531,20.4644755 16.1107692,20.2490909 C16.2422378,19.905035 16.3261538,19.5441958 16.4562238,19.2029371 C16.5443357,18.9707692 16.6674126,18.753986 16.8002797,18.4868531 C16.8226573,18.4434965 16.859021,18.4434965 16.8855944,18.4868531 C17.445035,19.4672727 17.9751049,20.4043357 18.514965,21.333007 C18.5946853,21.4700699 18.7023776,21.5875524 18.8058741,21.7078322 C18.838042,21.7455944 18.886993,21.7455944 18.9177622,21.7078322 C18.9988811,21.6099301 19.0841958,21.5022378 19.1932867,21.3721678 C19.2240559,21.3302098 19.2758042,21.3274126 19.3093706,21.3665734 C19.6128671,21.6966434 19.9639161,22.0490909 20.2618182,22.4393007 C20.4268531,22.6560839 20.5737063,22.774965 20.8506294,22.7595804 C21.273007,22.7372028 21.6967832,22.7455944 22.1177622,22.7483916 C22.3820979,22.7483916 22.4604196,22.6169231 22.3904895,22.381958 C22.2646154,21.960979 22.0114685,21.6309091 21.6212587,21.4211189 C21.5359441,21.374965 21.3988811,21.3302098 21.321958,21.3693706 C21.0366434,21.5022378 20.8897902,21.3176224 20.7345455,21.146993 C20.3974825,20.7847552 20.0492308,20.4267133 19.7387413,20.0406993 C19.6156643,19.8854545 19.5793007,19.6644755 19.4967832,19.4728671 C19.2016783,18.7987413 18.893986,18.126014 18.6100699,17.4490909 C18.4058741,16.9595804 18.2282517,16.4686713 18.052028,15.9987413 C18.0324476,15.9525874 18.0492308,15.8896503 18.0841958,15.8504895 C18.3275524,15.6127273 18.5513287,15.374965 18.7988811,15.167972 C18.8786014,15.0994406 19.0408392,15.091049 19.1569231,15.1134266 C20.2744056,15.3022378 21.286993,15.7777622 22.2464336,16.353986 C22.4841958,16.4952448 22.631049,16.8155245 22.7820979,17.0742657 C22.9443357,17.3553846 23.0576224,17.6644755 23.2016783,17.9595804 C23.3177622,18.2001399 23.5107692,18.3204196 23.7848951,18.3148252 C23.8282517,18.3148252 23.8744056,18.312028 23.9191608,18.312028 C23.9681119,18.312028 24.0296503,18.3148252 24.0562238,18.3148252 L24.1037762,18.3148252 L24.1541259,18.3148252 C24.1793007,18.3148252 24.2072727,18.312028 24.2142657,18.312028 L24.2282517,18.312028 C24.8086713,18.3064336 25.1555245,18.0420979 25.2338462,17.4714685 C25.3177622,16.8784615 25.4953846,16.3777622 26.086993,16.0938462 C26.3625175,15.9651748 26.4688112,15.6728671 26.4813986,15.3805594 C26.493986,15.1022378 26.6506294,14.9735664 26.873007,14.8672727 C27.6352448,14.4938462 27.7401399,14.3623776 27.631049,13.5176224 C27.5918881,13.2127273 27.5303497,12.9148252 27.4576224,12.6141259 C27.4478322,12.5623776 27.4324476,12.5106294 27.4170629,12.4588811 C27.3527273,12.2183217 27.2827972,11.9777622 27.2100699,11.7427972 C27.093986,11.3567832 26.9820979,11.3441958 26.6226573,11.5344056 C26.2688112,11.7232168 25.9247552,11.9316084 25.5695105,12.1134266 C25.2604196,12.2756643 25.0953846,12.2365035 24.9625175,11.9204196 C24.8534266,11.6574825 24.8058741,11.367972 24.7303497,11.0518881 C24.7177622,11.0043357 24.6911888,11.0029371 24.6688112,11.0434965 C24.5876923,11.2127273 24.5051748,11.381958 24.4254545,11.5483916 C24.4044755,11.5917483 24.3723077,11.588951 24.3541259,11.5427972 C24.2883916,11.3791608 24.2142657,11.1959441 24.1233566,10.9637762 C24.1051748,10.9176224 24.0827972,10.9204196 24.073007,10.9693706 C24.038042,11.1413986 24.0226573,11.2588811 23.9820979,11.367972 C23.9625175,11.4225175 23.921958,11.4714685 23.88,11.519021 C23.8478322,11.5567832 23.7932867,11.5623776 23.7513287,11.5344056 C23.6883916,11.491049 23.6254545,11.4532867 23.5974825,11.3931469 C23.5401399,11.2728671 23.5317483,11.133007 23.5107692,11.0001399 C23.493986,10.8896503 23.4855944,10.7861538 23.4716084,10.6309091 C23.4674126,10.581958 23.4436364,10.5735664 23.4170629,10.6197203 C23.3275524,10.767972 23.2562238,10.8882517 23.1904895,11.0001399 C23.1667133,11.0406993 23.107972,11.0630769 23.066014,11.0406993 C22.4100699,10.7134266 22.3960839,10.0155245 22.1107692,9.45328671 C22.0883916,9.40993007 22.0646154,9.41832168 22.0604196,9.46447552 C22.0492308,9.60853147 22.0422378,9.75118881 22.0100699,9.88825175 C21.9946853,9.95398601 21.9471329,10.0085315 21.900979,10.0686713 C21.8702098,10.1064336 21.8226573,10.1092308 21.7876923,10.0714685 C21.7177622,10.0029371 21.638042,9.92881119 21.6464336,9.86867133 C21.6772028,9.6420979 21.7541259,9.42111888 21.7820979,9.15818182 C21.7876923,9.10923077 21.7625175,9.09804196 21.7303497,9.1372028 C21.6254545,9.25468531 21.5205594,9.37216783 21.4184615,9.49104895 C21.3834965,9.52741259 21.3387413,9.52181818 21.3135664,9.48125874 C21.2254545,9.32181818 21.1177622,9.13440559 21.0086713,8.9427972 C20.9848951,8.89944056 20.9471329,8.87146853 20.9261538,8.87986014 C20.9037762,8.88545455 20.8911888,8.93440559 20.8953846,8.98335664 C20.9023776,9.0434965 20.9093706,9.10923077 20.9163636,9.17496503 C20.921958,9.22111888 20.8855944,9.25888112 20.8394406,9.24629371 C20.5261538,9.15818182 20.3387413,8.7372028 20.2436364,8.00853147 C20.2366434,7.95958042 20.2170629,7.95958042 20.2002797,8.00573427 C20.1345455,8.18055944 20.0688112,8.35258741 20.0030769,8.52741259 C19.9848951,8.57076923 19.9527273,8.57356643 19.9331469,8.53020979 C19.8576224,8.36937063 19.7793007,8.20013986 19.6827972,7.98895105 C19.6618182,7.94559441 19.6366434,7.94839161 19.6254545,7.99454545 C19.5918881,8.15818182 19.5667133,8.27566434 19.5415385,8.38755245 C19.5317483,8.4379021 19.4981818,8.47846154 19.466014,8.48965035 C19.4352448,8.49244755 19.3946853,8.46167832 19.3765035,8.41552448 C19.245035,8.07706294 19.1107692,7.7358042 18.9625175,7.35538462 C18.9429371,7.31202797 18.9205594,7.31202797 18.9093706,7.36097902 C18.8562238,7.58195804 18.8114685,7.77916084 18.7625175,7.98335664 C18.7513287,8.03230769 18.714965,8.0406993 18.6841958,8.00573427 C18.5135664,7.80853147 18.3611189,7.63370629 18.2100699,7.45888112 C18.1765035,7.42111888 18.1359441,7.40433566 18.1177622,7.41832168 C18.0995804,7.4351049 18.0967832,7.48685315 18.1107692,7.5358042 C18.128951,7.59594406 18.1513287,7.66447552 18.1737063,7.7386014 C18.1876923,7.78755245 18.1681119,7.80013986 18.1275524,7.77356643 C17.928951,7.63370629 17.7499301,7.51062937 17.5331469,7.36377622 C17.493986,7.33300699 17.4744056,7.34979021 17.4911888,7.39314685 C17.5513287,7.56097902 17.5988811,7.68545455 17.6464336,7.81972028 C17.6646154,7.86587413 17.6422378,7.88545455 17.5988811,7.86307692 C17.2086713,7.66727273 16.845035,7.48685315 16.4240559,7.27566434 C16.3806993,7.25188811 16.3625175,7.27146853 16.3848951,7.31762238 C16.5247552,7.59874126 16.6352448,7.82251748 16.7429371,8.0406993 C16.7653147,8.08545455 16.7653147,8.14 16.7429371,8.16097902 C16.7191608,8.18055944 16.666014,8.18055944 16.6226573,8.15538462 C16.3765035,8.01972028 16.128951,7.88545455 15.859021,7.73300699 C15.8142657,7.71062937 15.7918881,7.73020979 15.8072727,7.77636364 C15.8534266,7.9372028 15.8995804,8.09104895 15.9443357,8.2351049 C15.9583217,8.28405594 15.9303497,8.31202797 15.8841958,8.30363636 C15.700979,8.26027972 15.5107692,8.21552448 15.3205594,8.17216783 C15.2744056,8.16097902 15.2296503,8.16657343 15.2240559,8.18895105 C15.2170629,8.20993007 15.2436364,8.25188811 15.2813986,8.28125874 C15.3695105,8.34979021 15.4604196,8.42111888 15.5625175,8.49944056 C15.6002797,8.53020979 15.5918881,8.55678322 15.5429371,8.55958042 C15.3163636,8.57076923 15.1177622,8.58195804 14.921958,8.59314685 C14.873007,8.59594406 14.8198601,8.61972028 14.8058741,8.6448951 C14.7904895,8.67426573 14.8128671,8.71622378 14.8576224,8.7372028 C14.8981818,8.75398601 14.9415385,8.77636364 14.9960839,8.80293706 C15.0408392,8.82531469 15.0366434,8.8420979 14.9876923,8.8448951 C12.5275524,8.97216783 10.6562238,10.2379021 8.84503497,11.6085315 C8.20867133,12.0896503 7.60867133,12.6337063 7.07300699,13.2225175 C6.73454545,13.5945455 6.54433566,14.1022378 6.29258741,14.553986 C6.03944056,15.0099301 5.70657343,15.3861538 5.21146853,15.5777622 C4.4758042,15.8588811 3.89678322,15.6868531 3.2772028,15.0239161 C3.24363636,14.9875524 3.20587413,14.9959441 3.19468531,15.0448951 C3.13594406,15.305035 3.19888112,15.4225175 3.63664336,15.9987413 C3.66601399,16.0365035 3.65062937,16.0700699 3.60167832,16.0700699 C3.15552448,16.0476923 2.80027972,15.7441958 2.39048951,15.0337063 C2.36531469,14.9903497 2.33594406,14.9959441 2.32615385,15.0448951 C2.21006993,15.6756643 2.61146853,16.3427972 3.39748252,16.7441958" id="Fill-232" fill="#FFFFFE"></path>
            </g>
        </g>
    </g>
</svg>